%!PS-Adobe-3.0 EPSF-3.0
%%Title: /home/csdong/workspace/ThaiExpress/Report/tex//figures//MetricPerSecu_3_2.eps
%%Creator: matplotlib version 2.2.2, http://matplotlib.org/
%%CreationDate: Mon Sep 17 22:02:07 2018
%%Orientation: portrait
%%BoundingBox: 75 223 536 568
%%EndComments
%%BeginProlog
/mpldict 8 dict def
mpldict begin
/m { moveto } bind def
/l { lineto } bind def
/r { rlineto } bind def
/c { curveto } bind def
/cl { closepath } bind def
/box {
m
1 index 0 r
0 exch r
neg 0 r
cl
} bind def
/clipbox {
box
clip
newpath
} bind def
%!PS-Adobe-3.0 Resource-Font
%%Title: DejaVu Sans
%%Copyright: Copyright (c) 2003 by Bitstream, Inc. All Rights Reserved. Copyright (c) 2006 by Tavmjong Bah. All Rights Reserved. DejaVu changes are in public domain 
%%Creator: Converted from TrueType to type 3 by PPR
25 dict begin
/_d{bind def}bind def
/_m{moveto}_d
/_l{lineto}_d
/_cl{closepath eofill}_d
/_c{curveto}_d
/_sc{7 -1 roll{setcachedevice}{pop pop pop pop pop pop}ifelse}_d
/_e{exec}_d
/FontName /DejaVuSans def
/PaintType 0 def
/FontMatrix[.001 0 0 .001 0 0]def
/FontBBox[-1021 -463 1793 1232]def
/FontType 3 def
/Encoding [ /space /period /zero /one /two /five /seven /A /B /C /E /F /G /H /I /K /L /M /N /P /S /T /W /Z /a /b /c /d /e /f /g /h /i /k /l /m /n /o /p /r /s /t /u /v /w /y /minus ] def
/FontInfo 10 dict dup begin
/FamilyName (DejaVu Sans) def
/FullName (DejaVu Sans) def
/Notice (Copyright (c) 2003 by Bitstream, Inc. All Rights Reserved. Copyright (c) 2006 by Tavmjong Bah. All Rights Reserved. DejaVu changes are in public domain ) def
/Weight (Book) def
/Version (Version 2.35) def
/ItalicAngle 0.0 def
/isFixedPitch false def
/UnderlinePosition -130 def
/UnderlineThickness 90 def
end readonly def
/CharStrings 48 dict dup begin
/.notdef 0 def
/space{318 0 0 0 0 0 _sc
}_d
/period{318 0 107 0 210 124 _sc
107 124 _m
210 124 _l
210 0 _l
107 0 _l
107 124 _l
_cl}_d
/zero{636 0 66 -13 570 742 _sc
318 664 _m
267 664 229 639 203 589 _c
177 539 165 464 165 364 _c
165 264 177 189 203 139 _c
229 89 267 64 318 64 _c
369 64 407 89 433 139 _c
458 189 471 264 471 364 _c
471 464 458 539 433 589 _c
407 639 369 664 318 664 _c
318 742 _m
399 742 461 709 505 645 _c
548 580 570 486 570 364 _c
570 241 548 147 505 83 _c
461 19 399 -13 318 -13 _c
236 -13 173 19 130 83 _c
87 147 66 241 66 364 _c
66 486 87 580 130 645 _c
173 709 236 742 318 742 _c
_cl}_d
/one{636 0 110 0 544 729 _sc
124 83 _m
285 83 _l
285 639 _l
110 604 _l
110 694 _l
284 729 _l
383 729 _l
383 83 _l
544 83 _l
544 0 _l
124 0 _l
124 83 _l
_cl}_d
/two{{636 0 73 0 536 742 _sc
192 83 _m
536 83 _l
536 0 _l
73 0 _l
73 83 _l
110 121 161 173 226 239 _c
290 304 331 346 348 365 _c
380 400 402 430 414 455 _c
426 479 433 504 433 528 _c
433 566 419 598 392 622 _c
365 646 330 659 286 659 _c
255 659 222 653 188 643 _c
154 632 117 616 78 594 _c
78 694 _l
118 710 155 722 189 730 _c
223 738 255 742 284 742 _c
}_e{359 742 419 723 464 685 _c
509 647 532 597 532 534 _c
532 504 526 475 515 449 _c
504 422 484 390 454 354 _c
446 344 420 317 376 272 _c
332 227 271 164 192 83 _c
_cl}_e}_d
/five{{636 0 77 -13 549 729 _sc
108 729 _m
495 729 _l
495 646 _l
198 646 _l
198 467 _l
212 472 227 476 241 478 _c
255 480 270 482 284 482 _c
365 482 429 459 477 415 _c
525 370 549 310 549 234 _c
549 155 524 94 475 51 _c
426 8 357 -13 269 -13 _c
238 -13 207 -10 175 -6 _c
143 -1 111 6 77 17 _c
77 116 _l
106 100 136 88 168 80 _c
199 72 232 69 267 69 _c
}_e{323 69 368 83 401 113 _c
433 143 450 183 450 234 _c
450 284 433 324 401 354 _c
368 384 323 399 267 399 _c
241 399 214 396 188 390 _c
162 384 135 375 108 363 _c
108 729 _l
_cl}_e}_d
/seven{636 0 82 0 551 729 _sc
82 729 _m
551 729 _l
551 687 _l
286 0 _l
183 0 _l
432 646 _l
82 646 _l
82 729 _l
_cl}_d
/A{684 0 8 0 676 729 _sc
342 632 _m
208 269 _l
476 269 _l
342 632 _l
286 729 _m
398 729 _l
676 0 _l
573 0 _l
507 187 _l
178 187 _l
112 0 _l
8 0 _l
286 729 _l
_cl}_d
/B{{686 0 98 0 615 729 _sc
197 348 _m
197 81 _l
355 81 _l
408 81 447 92 473 114 _c
498 136 511 169 511 215 _c
511 260 498 293 473 315 _c
447 337 408 348 355 348 _c
197 348 _l
197 648 _m
197 428 _l
343 428 _l
391 428 426 437 450 455 _c
474 473 486 500 486 538 _c
486 574 474 602 450 620 _c
426 638 391 648 343 648 _c
197 648 _l
98 729 _m
350 729 _l
}_e{425 729 483 713 524 682 _c
564 650 585 606 585 549 _c
585 504 574 468 553 442 _c
532 416 502 399 462 393 _c
510 382 548 360 575 327 _c
601 294 615 253 615 204 _c
615 138 592 88 548 53 _c
504 17 441 0 360 0 _c
98 0 _l
98 729 _l
_cl}_e}_d
/C{{698 0 56 -13 644 742 _sc
644 673 _m
644 569 _l
610 599 575 622 537 638 _c
499 653 460 661 418 661 _c
334 661 270 635 226 584 _c
182 533 160 460 160 364 _c
160 268 182 194 226 143 _c
270 92 334 67 418 67 _c
460 67 499 74 537 90 _c
575 105 610 128 644 159 _c
644 56 _l
609 32 572 15 534 4 _c
496 -7 455 -13 412 -13 _c
302 -13 215 20 151 87 _c
}_e{87 154 56 246 56 364 _c
56 481 87 573 151 641 _c
215 708 302 742 412 742 _c
456 742 497 736 535 725 _c
573 713 610 696 644 673 _c
_cl}_e}_d
/E{632 0 98 0 568 729 _sc
98 729 _m
559 729 _l
559 646 _l
197 646 _l
197 430 _l
544 430 _l
544 347 _l
197 347 _l
197 83 _l
568 83 _l
568 0 _l
98 0 _l
98 729 _l
_cl}_d
/F{575 0 98 0 517 729 _sc
98 729 _m
517 729 _l
517 646 _l
197 646 _l
197 431 _l
486 431 _l
486 348 _l
197 348 _l
197 0 _l
98 0 _l
98 729 _l
_cl}_d
/G{{775 0 56 -13 693 742 _sc
595 104 _m
595 300 _l
434 300 _l
434 381 _l
693 381 _l
693 68 _l
655 40 613 20 567 7 _c
521 -6 472 -13 420 -13 _c
306 -13 216 20 152 86 _c
88 152 56 245 56 364 _c
56 482 88 575 152 642 _c
216 708 306 742 420 742 _c
467 742 512 736 555 724 _c
598 712 638 695 674 673 _c
674 568 _l
637 598 598 621 557 637 _c
516 653 473 661 428 661 _c
}_e{338 661 271 636 227 586 _c
182 536 160 462 160 364 _c
160 265 182 191 227 141 _c
271 91 338 67 428 67 _c
462 67 493 70 521 76 _c
549 82 573 91 595 104 _c
_cl}_e}_d
/H{752 0 98 0 654 729 _sc
98 729 _m
197 729 _l
197 430 _l
555 430 _l
555 729 _l
654 729 _l
654 0 _l
555 0 _l
555 347 _l
197 347 _l
197 0 _l
98 0 _l
98 729 _l
_cl}_d
/I{295 0 98 0 197 729 _sc
98 729 _m
197 729 _l
197 0 _l
98 0 _l
98 729 _l
_cl}_d
/K{656 0 98 0 677 729 _sc
98 729 _m
197 729 _l
197 421 _l
524 729 _l
651 729 _l
289 389 _l
677 0 _l
547 0 _l
197 351 _l
197 0 _l
98 0 _l
98 729 _l
_cl}_d
/L{557 0 98 0 552 729 _sc
98 729 _m
197 729 _l
197 83 _l
552 83 _l
552 0 _l
98 0 _l
98 729 _l
_cl}_d
/M{863 0 98 0 765 729 _sc
98 729 _m
245 729 _l
431 233 _l
618 729 _l
765 729 _l
765 0 _l
669 0 _l
669 640 _l
481 140 _l
382 140 _l
194 640 _l
194 0 _l
98 0 _l
98 729 _l
_cl}_d
/N{748 0 98 0 650 729 _sc
98 729 _m
231 729 _l
554 119 _l
554 729 _l
650 729 _l
650 0 _l
517 0 _l
194 610 _l
194 0 _l
98 0 _l
98 729 _l
_cl}_d
/P{603 0 98 0 569 729 _sc
197 648 _m
197 374 _l
321 374 _l
367 374 402 385 427 409 _c
452 433 465 467 465 511 _c
465 555 452 588 427 612 _c
402 636 367 648 321 648 _c
197 648 _l
98 729 _m
321 729 _l
402 729 464 710 506 673 _c
548 636 569 582 569 511 _c
569 439 548 384 506 348 _c
464 311 402 293 321 293 _c
197 293 _l
197 0 _l
98 0 _l
98 729 _l
_cl}_d
/S{{635 0 66 -13 579 742 _sc
535 705 _m
535 609 _l
497 627 462 640 429 649 _c
395 657 363 662 333 662 _c
279 662 237 651 208 631 _c
179 610 165 580 165 542 _c
165 510 174 485 194 469 _c
213 452 250 439 304 429 _c
364 417 _l
437 403 491 378 526 343 _c
561 307 579 260 579 201 _c
579 130 555 77 508 41 _c
460 5 391 -13 300 -13 _c
265 -13 228 -9 189 -2 _c
}_e{150 5 110 16 69 32 _c
69 134 _l
109 111 148 94 186 83 _c
224 71 262 66 300 66 _c
356 66 399 77 430 99 _c
460 121 476 152 476 194 _c
476 230 465 258 443 278 _c
421 298 385 313 335 323 _c
275 335 _l
201 349 148 372 115 404 _c
82 435 66 478 66 534 _c
66 598 88 649 134 686 _c
179 723 242 742 322 742 _c
356 742 390 739 426 733 _c
461 727 497 717 535 705 _c
}_e{_cl}_e}_d
/T{611 0 -2 0 614 729 _sc
-2 729 _m
614 729 _l
614 646 _l
355 646 _l
355 0 _l
256 0 _l
256 646 _l
-2 646 _l
-2 729 _l
_cl}_d
/W{989 0 33 0 956 729 _sc
33 729 _m
133 729 _l
286 113 _l
439 729 _l
550 729 _l
703 113 _l
856 729 _l
956 729 _l
773 0 _l
649 0 _l
495 633 _l
340 0 _l
216 0 _l
33 729 _l
_cl}_d
/Z{685 0 45 0 640 729 _sc
56 729 _m
629 729 _l
629 654 _l
168 83 _l
640 83 _l
640 0 _l
45 0 _l
45 75 _l
506 646 _l
56 646 _l
56 729 _l
_cl}_d
/a{{613 0 60 -13 522 560 _sc
343 275 _m
270 275 220 266 192 250 _c
164 233 150 205 150 165 _c
150 133 160 107 181 89 _c
202 70 231 61 267 61 _c
317 61 357 78 387 114 _c
417 149 432 196 432 255 _c
432 275 _l
343 275 _l
522 312 _m
522 0 _l
432 0 _l
432 83 _l
411 49 385 25 355 10 _c
325 -5 287 -13 243 -13 _c
187 -13 142 2 109 33 _c
76 64 60 106 60 159 _c
}_e{60 220 80 266 122 298 _c
163 329 224 345 306 345 _c
432 345 _l
432 354 _l
432 395 418 427 391 450 _c
364 472 326 484 277 484 _c
245 484 215 480 185 472 _c
155 464 127 453 100 439 _c
100 522 _l
132 534 164 544 195 550 _c
226 556 256 560 286 560 _c
365 560 424 539 463 498 _c
502 457 522 395 522 312 _c
_cl}_e}_d
/b{{635 0 91 -13 580 760 _sc
487 273 _m
487 339 473 390 446 428 _c
418 466 381 485 334 485 _c
286 485 249 466 222 428 _c
194 390 181 339 181 273 _c
181 207 194 155 222 117 _c
249 79 286 61 334 61 _c
381 61 418 79 446 117 _c
473 155 487 207 487 273 _c
181 464 _m
199 496 223 520 252 536 _c
281 552 316 560 356 560 _c
422 560 476 533 518 481 _c
559 428 580 359 580 273 _c
}_e{580 187 559 117 518 65 _c
476 13 422 -13 356 -13 _c
316 -13 281 -5 252 10 _c
223 25 199 49 181 82 _c
181 0 _l
91 0 _l
91 760 _l
181 760 _l
181 464 _l
_cl}_e}_d
/c{{550 0 55 -13 488 560 _sc
488 526 _m
488 442 _l
462 456 437 466 411 473 _c
385 480 360 484 334 484 _c
276 484 230 465 198 428 _c
166 391 150 339 150 273 _c
150 206 166 154 198 117 _c
230 80 276 62 334 62 _c
360 62 385 65 411 72 _c
437 79 462 90 488 104 _c
488 21 _l
462 9 436 0 410 -5 _c
383 -10 354 -13 324 -13 _c
242 -13 176 12 128 64 _c
}_e{79 115 55 185 55 273 _c
55 362 79 432 128 483 _c
177 534 244 560 330 560 _c
358 560 385 557 411 551 _c
437 545 463 537 488 526 _c
_cl}_e}_d
/d{{635 0 55 -13 544 760 _sc
454 464 _m
454 760 _l
544 760 _l
544 0 _l
454 0 _l
454 82 _l
435 49 411 25 382 10 _c
353 -5 319 -13 279 -13 _c
213 -13 159 13 117 65 _c
75 117 55 187 55 273 _c
55 359 75 428 117 481 _c
159 533 213 560 279 560 _c
319 560 353 552 382 536 _c
411 520 435 496 454 464 _c
148 273 _m
148 207 161 155 188 117 _c
215 79 253 61 301 61 _c
}_e{348 61 385 79 413 117 _c
440 155 454 207 454 273 _c
454 339 440 390 413 428 _c
385 466 348 485 301 485 _c
253 485 215 466 188 428 _c
161 390 148 339 148 273 _c
_cl}_e}_d
/e{{615 0 55 -13 562 560 _sc
562 296 _m
562 252 _l
149 252 _l
153 190 171 142 205 110 _c
238 78 284 62 344 62 _c
378 62 412 66 444 74 _c
476 82 509 95 541 113 _c
541 28 _l
509 14 476 3 442 -3 _c
408 -9 373 -13 339 -13 _c
251 -13 182 12 131 62 _c
80 112 55 181 55 268 _c
55 357 79 428 127 481 _c
175 533 241 560 323 560 _c
397 560 455 536 498 489 _c
}_e{540 441 562 377 562 296 _c
472 322 _m
471 371 457 410 431 440 _c
404 469 368 484 324 484 _c
274 484 234 469 204 441 _c
174 413 156 373 152 322 _c
472 322 _l
_cl}_e}_d
/f{352 0 23 0 371 760 _sc
371 760 _m
371 685 _l
285 685 _l
253 685 230 678 218 665 _c
205 652 199 629 199 595 _c
199 547 _l
347 547 _l
347 477 _l
199 477 _l
199 0 _l
109 0 _l
109 477 _l
23 477 _l
23 547 _l
109 547 _l
109 585 _l
109 645 123 690 151 718 _c
179 746 224 760 286 760 _c
371 760 _l
_cl}_d
/g{{635 0 55 -207 544 560 _sc
454 280 _m
454 344 440 395 414 431 _c
387 467 349 485 301 485 _c
253 485 215 467 188 431 _c
161 395 148 344 148 280 _c
148 215 161 165 188 129 _c
215 93 253 75 301 75 _c
349 75 387 93 414 129 _c
440 165 454 215 454 280 _c
544 68 _m
544 -24 523 -93 482 -139 _c
440 -184 377 -207 292 -207 _c
260 -207 231 -204 203 -200 _c
175 -195 147 -188 121 -178 _c
}_e{121 -91 _l
147 -105 173 -115 199 -122 _c
225 -129 251 -133 278 -133 _c
336 -133 380 -117 410 -87 _c
439 -56 454 -10 454 52 _c
454 96 _l
435 64 411 40 382 24 _c
353 8 319 0 279 0 _c
211 0 157 25 116 76 _c
75 127 55 195 55 280 _c
55 364 75 432 116 483 _c
157 534 211 560 279 560 _c
319 560 353 552 382 536 _c
411 520 435 496 454 464 _c
454 547 _l
544 547 _l
}_e{544 68 _l
_cl}_e}_d
/h{634 0 91 0 549 760 _sc
549 330 _m
549 0 _l
459 0 _l
459 327 _l
459 379 448 417 428 443 _c
408 469 378 482 338 482 _c
289 482 251 466 223 435 _c
195 404 181 362 181 309 _c
181 0 _l
91 0 _l
91 760 _l
181 760 _l
181 462 _l
202 494 227 519 257 535 _c
286 551 320 560 358 560 _c
420 560 468 540 500 501 _c
532 462 549 405 549 330 _c
_cl}_d
/i{278 0 94 0 184 760 _sc
94 547 _m
184 547 _l
184 0 _l
94 0 _l
94 547 _l
94 760 _m
184 760 _l
184 646 _l
94 646 _l
94 760 _l
_cl}_d
/k{579 0 91 0 576 760 _sc
91 760 _m
181 760 _l
181 311 _l
449 547 _l
564 547 _l
274 291 _l
576 0 _l
459 0 _l
181 267 _l
181 0 _l
91 0 _l
91 760 _l
_cl}_d
/l{278 0 94 0 184 760 _sc
94 760 _m
184 760 _l
184 0 _l
94 0 _l
94 760 _l
_cl}_d
/m{{974 0 91 0 889 560 _sc
520 442 _m
542 482 569 511 600 531 _c
631 550 668 560 711 560 _c
767 560 811 540 842 500 _c
873 460 889 403 889 330 _c
889 0 _l
799 0 _l
799 327 _l
799 379 789 418 771 444 _c
752 469 724 482 686 482 _c
639 482 602 466 575 435 _c
548 404 535 362 535 309 _c
535 0 _l
445 0 _l
445 327 _l
445 379 435 418 417 444 _c
398 469 369 482 331 482 _c
}_e{285 482 248 466 221 435 _c
194 404 181 362 181 309 _c
181 0 _l
91 0 _l
91 547 _l
181 547 _l
181 462 _l
201 495 226 520 255 536 _c
283 552 317 560 357 560 _c
397 560 430 550 458 530 _c
486 510 506 480 520 442 _c
_cl}_e}_d
/n{634 0 91 0 549 560 _sc
549 330 _m
549 0 _l
459 0 _l
459 327 _l
459 379 448 417 428 443 _c
408 469 378 482 338 482 _c
289 482 251 466 223 435 _c
195 404 181 362 181 309 _c
181 0 _l
91 0 _l
91 547 _l
181 547 _l
181 462 _l
202 494 227 519 257 535 _c
286 551 320 560 358 560 _c
420 560 468 540 500 501 _c
532 462 549 405 549 330 _c
_cl}_d
/o{612 0 55 -13 557 560 _sc
306 484 _m
258 484 220 465 192 427 _c
164 389 150 338 150 273 _c
150 207 163 156 191 118 _c
219 80 257 62 306 62 _c
354 62 392 80 420 118 _c
448 156 462 207 462 273 _c
462 337 448 389 420 427 _c
392 465 354 484 306 484 _c
306 560 _m
384 560 445 534 490 484 _c
534 433 557 363 557 273 _c
557 183 534 113 490 63 _c
445 12 384 -13 306 -13 _c
227 -13 165 12 121 63 _c
77 113 55 183 55 273 _c
55 363 77 433 121 484 _c
165 534 227 560 306 560 _c
_cl}_d
/p{{635 0 91 -207 580 560 _sc
181 82 _m
181 -207 _l
91 -207 _l
91 547 _l
181 547 _l
181 464 _l
199 496 223 520 252 536 _c
281 552 316 560 356 560 _c
422 560 476 533 518 481 _c
559 428 580 359 580 273 _c
580 187 559 117 518 65 _c
476 13 422 -13 356 -13 _c
316 -13 281 -5 252 10 _c
223 25 199 49 181 82 _c
487 273 _m
487 339 473 390 446 428 _c
418 466 381 485 334 485 _c
}_e{286 485 249 466 222 428 _c
194 390 181 339 181 273 _c
181 207 194 155 222 117 _c
249 79 286 61 334 61 _c
381 61 418 79 446 117 _c
473 155 487 207 487 273 _c
_cl}_e}_d
/r{411 0 91 0 411 560 _sc
411 463 _m
401 469 390 473 378 476 _c
366 478 353 480 339 480 _c
288 480 249 463 222 430 _c
194 397 181 350 181 288 _c
181 0 _l
91 0 _l
91 547 _l
181 547 _l
181 462 _l
199 495 224 520 254 536 _c
284 552 321 560 365 560 _c
371 560 378 559 386 559 _c
393 558 401 557 411 555 _c
411 463 _l
_cl}_d
/s{{521 0 54 -13 472 560 _sc
443 531 _m
443 446 _l
417 458 391 468 364 475 _c
336 481 308 485 279 485 _c
234 485 200 478 178 464 _c
156 450 145 430 145 403 _c
145 382 153 366 169 354 _c
185 342 217 330 265 320 _c
296 313 _l
360 299 405 279 432 255 _c
458 230 472 195 472 151 _c
472 100 452 60 412 31 _c
372 1 316 -13 246 -13 _c
216 -13 186 -10 154 -5 _c
}_e{122 0 89 8 54 20 _c
54 113 _l
87 95 120 82 152 74 _c
184 65 216 61 248 61 _c
290 61 323 68 346 82 _c
368 96 380 117 380 144 _c
380 168 371 187 355 200 _c
339 213 303 226 247 238 _c
216 245 _l
160 257 119 275 95 299 _c
70 323 58 356 58 399 _c
58 450 76 490 112 518 _c
148 546 200 560 268 560 _c
301 560 332 557 362 552 _c
391 547 418 540 443 531 _c
}_e{_cl}_e}_d
/t{392 0 27 0 368 702 _sc
183 702 _m
183 547 _l
368 547 _l
368 477 _l
183 477 _l
183 180 _l
183 135 189 106 201 94 _c
213 81 238 75 276 75 _c
368 75 _l
368 0 _l
276 0 _l
206 0 158 13 132 39 _c
106 65 93 112 93 180 _c
93 477 _l
27 477 _l
27 547 _l
93 547 _l
93 702 _l
183 702 _l
_cl}_d
/u{634 0 85 -13 543 560 _sc
85 216 _m
85 547 _l
175 547 _l
175 219 _l
175 167 185 129 205 103 _c
225 77 255 64 296 64 _c
344 64 383 79 411 110 _c
439 141 453 183 453 237 _c
453 547 _l
543 547 _l
543 0 _l
453 0 _l
453 84 _l
431 50 405 26 377 10 _c
348 -5 315 -13 277 -13 _c
214 -13 166 6 134 45 _c
101 83 85 140 85 216 _c
311 560 _m
311 560 _l
_cl}_d
/v{592 0 30 0 562 547 _sc
30 547 _m
125 547 _l
296 88 _l
467 547 _l
562 547 _l
357 0 _l
235 0 _l
30 547 _l
_cl}_d
/w{818 0 42 0 776 547 _sc
42 547 _m
132 547 _l
244 120 _l
356 547 _l
462 547 _l
574 120 _l
686 547 _l
776 547 _l
633 0 _l
527 0 _l
409 448 _l
291 0 _l
185 0 _l
42 547 _l
_cl}_d
/y{592 0 30 -207 562 547 _sc
322 -50 _m
296 -114 271 -157 247 -177 _c
223 -197 191 -207 151 -207 _c
79 -207 _l
79 -132 _l
132 -132 _l
156 -132 175 -126 189 -114 _c
203 -102 218 -75 235 -31 _c
251 9 _l
30 547 _l
125 547 _l
296 119 _l
467 547 _l
562 547 _l
322 -50 _l
_cl}_d
/minus{838 0 106 272 732 355 _sc
106 355 _m
732 355 _l
732 272 _l
106 272 _l
106 355 _l
_cl}_d
end readonly def

/BuildGlyph
 {exch begin
 CharStrings exch
 2 copy known not{pop /.notdef}if
 true 3 1 roll get exec
 end}_d

/BuildChar {
 1 index /Encoding get exch get
 1 index /BuildGlyph get exec
}_d

FontName currentdict end definefont pop
end
%%EndProlog
mpldict begin
75.6 223.2 translate
460.8 345.6 0 0 clipbox
gsave
0 0 m
460.8 0 l
460.8 345.6 l
0 345.6 l
cl
1.000 setgray
fill
grestore
gsave
57.6 38.016 m
414.72 38.016 l
414.72 304.128 l
57.6 304.128 l
cl
1.000 setgray
fill
grestore
gsave
357.1 266.1 57.6 38.02 clipbox
73.832727 171.072 m
85.224115 171.072 l
85.224115 114.95115 l
73.832727 114.95115 l
cl
0.122 0.467 0.706 setrgbcolor
fill
grestore
gsave
357.1 266.1 57.6 38.02 clipbox
88.071962 171.072 m
99.463349 171.072 l
99.463349 150.910714 l
88.071962 150.910714 l
cl
0.122 0.467 0.706 setrgbcolor
fill
grestore
gsave
357.1 266.1 57.6 38.02 clipbox
102.311196 171.072 m
113.702584 171.072 l
113.702584 175.565218 l
102.311196 175.565218 l
cl
0.122 0.467 0.706 setrgbcolor
fill
grestore
gsave
357.1 266.1 57.6 38.02 clipbox
116.550431 171.072 m
127.941818 171.072 l
127.941818 167.303202 l
116.550431 167.303202 l
cl
0.122 0.467 0.706 setrgbcolor
fill
grestore
gsave
357.1 266.1 57.6 38.02 clipbox
130.789665 171.072 m
142.181053 171.072 l
142.181053 159.669427 l
130.789665 159.669427 l
cl
0.122 0.467 0.706 setrgbcolor
fill
grestore
gsave
357.1 266.1 57.6 38.02 clipbox
145.0289 171.072 m
156.420287 171.072 l
156.420287 185.885429 l
145.0289 185.885429 l
cl
0.122 0.467 0.706 setrgbcolor
fill
grestore
gsave
357.1 266.1 57.6 38.02 clipbox
159.268134 171.072 m
170.659522 171.072 l
170.659522 201.731103 l
159.268134 201.731103 l
cl
0.122 0.467 0.706 setrgbcolor
fill
grestore
gsave
357.1 266.1 57.6 38.02 clipbox
173.507368 171.072 m
184.898756 171.072 l
184.898756 144.225043 l
173.507368 144.225043 l
cl
0.122 0.467 0.706 setrgbcolor
fill
grestore
gsave
357.1 266.1 57.6 38.02 clipbox
187.746603 171.072 m
199.13799 171.072 l
199.13799 165.984105 l
187.746603 165.984105 l
cl
0.122 0.467 0.706 setrgbcolor
fill
grestore
gsave
357.1 266.1 57.6 38.02 clipbox
201.985837 171.072 m
213.377225 171.072 l
213.377225 179.64539 l
201.985837 179.64539 l
cl
0.122 0.467 0.706 setrgbcolor
fill
grestore
gsave
357.1 266.1 57.6 38.02 clipbox
216.225072 171.072 m
227.616459 171.072 l
227.616459 183.18063 l
216.225072 183.18063 l
cl
0.122 0.467 0.706 setrgbcolor
fill
grestore
gsave
357.1 266.1 57.6 38.02 clipbox
230.464306 171.072 m
241.855694 171.072 l
241.855694 188.271704 l
230.464306 188.271704 l
cl
0.122 0.467 0.706 setrgbcolor
fill
grestore
gsave
357.1 266.1 57.6 38.02 clipbox
244.703541 171.072 m
256.094928 171.072 l
256.094928 171.930968 l
244.703541 171.930968 l
cl
0.122 0.467 0.706 setrgbcolor
fill
grestore
gsave
357.1 266.1 57.6 38.02 clipbox
258.942775 171.072 m
270.334163 171.072 l
270.334163 194.895536 l
258.942775 194.895536 l
cl
0.122 0.467 0.706 setrgbcolor
fill
grestore
gsave
357.1 266.1 57.6 38.02 clipbox
273.18201 171.072 m
284.573397 171.072 l
284.573397 209.758117 l
273.18201 209.758117 l
cl
0.122 0.467 0.706 setrgbcolor
fill
grestore
gsave
357.1 266.1 57.6 38.02 clipbox
287.421244 171.072 m
298.812632 171.072 l
298.812632 190.800634 l
287.421244 190.800634 l
cl
0.122 0.467 0.706 setrgbcolor
fill
grestore
gsave
357.1 266.1 57.6 38.02 clipbox
301.660478 171.072 m
313.051866 171.072 l
313.051866 200.041386 l
301.660478 200.041386 l
cl
0.122 0.467 0.706 setrgbcolor
fill
grestore
gsave
357.1 266.1 57.6 38.02 clipbox
315.899713 171.072 m
327.2911 171.072 l
327.2911 165.319791 l
315.899713 165.319791 l
cl
0.122 0.467 0.706 setrgbcolor
fill
grestore
gsave
357.1 266.1 57.6 38.02 clipbox
330.138947 171.072 m
341.530335 171.072 l
341.530335 151.996784 l
330.138947 151.996784 l
cl
0.122 0.467 0.706 setrgbcolor
fill
grestore
gsave
357.1 266.1 57.6 38.02 clipbox
344.378182 171.072 m
355.769569 171.072 l
355.769569 180.032317 l
344.378182 180.032317 l
cl
0.122 0.467 0.706 setrgbcolor
fill
grestore
gsave
357.1 266.1 57.6 38.02 clipbox
358.617416 171.072 m
370.008804 171.072 l
370.008804 223.621768 l
358.617416 223.621768 l
cl
0.122 0.467 0.706 setrgbcolor
fill
grestore
gsave
357.1 266.1 57.6 38.02 clipbox
372.856651 171.072 m
384.248038 171.072 l
384.248038 217.345704 l
372.856651 217.345704 l
cl
0.122 0.467 0.706 setrgbcolor
fill
grestore
gsave
357.1 266.1 57.6 38.02 clipbox
387.095885 171.072 m
398.487273 171.072 l
398.487273 279.682721 l
387.095885 279.682721 l
cl
0.122 0.467 0.706 setrgbcolor
fill
grestore
0.800 setlinewidth
1 setlinejoin
2 setlinecap
[] 0 setdash
0.690 setgray
gsave
357.1 266.1 57.6 38.02 clipbox
79.528421 38.016 m
79.528421 304.128 l
stroke
grestore
0 setlinecap
0.000 setgray
gsave
/o {
gsave
newpath
translate
0.8 setlinewidth
1 setlinejoin
0 setlinecap
0 0 m
0 -3.5 l

gsave
0.000 setgray
fill
grestore
stroke
grestore
} bind def
79.5284 38.016 o
grestore
/DejaVuSans findfont
10.000 scalefont
setfont
gsave
87.122171 -36.734000 translate
90.000000 rotate
0.000000 0.000000 m /F glyphshow
5.751953 0.000000 m /e glyphshow
11.904297 0.000000 m /e glyphshow
18.056641 0.000000 m /d glyphshow
24.404297 0.000000 m /e glyphshow
30.556641 0.000000 m /r glyphshow
34.667969 0.000000 m /space glyphshow
37.846680 0.000000 m /C glyphshow
44.829102 0.000000 m /a glyphshow
50.957031 0.000000 m /t glyphshow
54.877930 0.000000 m /t glyphshow
58.798828 0.000000 m /l glyphshow
61.577148 0.000000 m /e glyphshow
grestore
2 setlinecap
0.690 setgray
gsave
357.1 266.1 57.6 38.02 clipbox
93.767656 38.016 m
93.767656 304.128 l
stroke
grestore
0 setlinecap
0.000 setgray
gsave
/o {
gsave
newpath
translate
0.8 setlinewidth
1 setlinejoin
0 setlinecap
0 0 m
0 -3.5 l

gsave
0.000 setgray
fill
grestore
stroke
grestore
} bind def
93.7677 38.016 o
grestore
gsave
101.361406 -22.499625 translate
90.000000 rotate
0.000000 0.000000 m /L glyphshow
5.571289 0.000000 m /i glyphshow
8.349609 0.000000 m /v glyphshow
14.267578 0.000000 m /e glyphshow
20.419922 0.000000 m /space glyphshow
23.598633 0.000000 m /C glyphshow
30.581055 0.000000 m /a glyphshow
36.708984 0.000000 m /t glyphshow
40.629883 0.000000 m /t glyphshow
44.550781 0.000000 m /l glyphshow
47.329102 0.000000 m /e glyphshow
grestore
2 setlinecap
0.690 setgray
gsave
357.1 266.1 57.6 38.02 clipbox
108.00689 38.016 m
108.00689 304.128 l
stroke
grestore
0 setlinecap
0.000 setgray
gsave
/o {
gsave
newpath
translate
0.8 setlinewidth
1 setlinejoin
0 setlinecap
0 0 m
0 -3.5 l

gsave
0.000 setgray
fill
grestore
stroke
grestore
} bind def
108.007 38.016 o
grestore
gsave
115.600640 -20.405875 translate
90.000000 rotate
0.000000 0.000000 m /L glyphshow
5.571289 0.000000 m /e glyphshow
11.723633 0.000000 m /a glyphshow
17.851562 0.000000 m /n glyphshow
24.189453 0.000000 m /space glyphshow
27.368164 0.000000 m /h glyphshow
33.706055 0.000000 m /o glyphshow
39.824219 0.000000 m /g glyphshow
46.171875 0.000000 m /s glyphshow
grestore
2 setlinecap
0.690 setgray
gsave
357.1 266.1 57.6 38.02 clipbox
122.246124 38.016 m
122.246124 304.128 l
stroke
grestore
0 setlinecap
0.000 setgray
gsave
/o {
gsave
newpath
translate
0.8 setlinewidth
1 setlinejoin
0 setlinecap
0 0 m
0 -3.5 l

gsave
0.000 setgray
fill
grestore
stroke
grestore
} bind def
122.246 38.016 o
grestore
gsave
129.839874 -38.499625 translate
90.000000 rotate
0.000000 0.000000 m /K glyphshow
6.557617 0.000000 m /a glyphshow
12.685547 0.000000 m /n glyphshow
19.023438 0.000000 m /s glyphshow
24.233398 0.000000 m /a glyphshow
30.361328 0.000000 m /s glyphshow
35.571289 0.000000 m /space glyphshow
38.750000 0.000000 m /w glyphshow
46.928711 0.000000 m /h glyphshow
53.266602 0.000000 m /e glyphshow
59.418945 0.000000 m /a glyphshow
65.546875 0.000000 m /t glyphshow
grestore
2 setlinecap
0.690 setgray
gsave
357.1 266.1 57.6 38.02 clipbox
136.485359 38.016 m
136.485359 304.128 l
stroke
grestore
0 setlinecap
0.000 setgray
gsave
/o {
gsave
newpath
translate
0.8 setlinewidth
1 setlinejoin
0 setlinecap
0 0 m
0 -3.5 l

gsave
0.000 setgray
fill
grestore
stroke
grestore
} bind def
136.485 38.016 o
grestore
gsave
144.079109 -17.562125 translate
90.000000 rotate
0.000000 0.000000 m /S glyphshow
6.347656 0.000000 m /o glyphshow
12.465820 0.000000 m /y glyphshow
18.383789 0.000000 m /b glyphshow
24.731445 0.000000 m /e glyphshow
30.883789 0.000000 m /a glyphshow
37.011719 0.000000 m /n glyphshow
43.349609 0.000000 m /s glyphshow
grestore
2 setlinecap
0.690 setgray
gsave
357.1 266.1 57.6 38.02 clipbox
150.724593 38.016 m
150.724593 304.128 l
stroke
grestore
0 setlinecap
0.000 setgray
gsave
/o {
gsave
newpath
translate
0.8 setlinewidth
1 setlinejoin
0 setlinecap
0 0 m
0 -3.5 l

gsave
0.000 setgray
fill
grestore
stroke
grestore
} bind def
150.725 38.016 o
grestore
gsave
158.318343 7.453500 translate
90.000000 rotate
0.000000 0.000000 m /C glyphshow
6.982422 0.000000 m /o glyphshow
13.100586 0.000000 m /r glyphshow
17.211914 0.000000 m /n glyphshow
grestore
2 setlinecap
0.690 setgray
gsave
357.1 266.1 57.6 38.02 clipbox
164.963828 38.016 m
164.963828 304.128 l
stroke
grestore
0 setlinecap
0.000 setgray
gsave
/o {
gsave
newpath
translate
0.8 setlinewidth
1 setlinejoin
0 setlinecap
0 0 m
0 -3.5 l

gsave
0.000 setgray
fill
grestore
stroke
grestore
} bind def
164.964 38.016 o
grestore
gsave
172.557578 1.750375 translate
90.000000 rotate
0.000000 0.000000 m /S glyphshow
6.347656 0.000000 m /u glyphshow
12.685547 0.000000 m /g glyphshow
19.033203 0.000000 m /a glyphshow
25.161133 0.000000 m /r glyphshow
grestore
2 setlinecap
0.690 setgray
gsave
357.1 266.1 57.6 38.02 clipbox
179.203062 38.016 m
179.203062 304.128 l
stroke
grestore
0 setlinecap
0.000 setgray
gsave
/o {
gsave
newpath
translate
0.8 setlinewidth
1 setlinejoin
0 setlinecap
0 0 m
0 -3.5 l

gsave
0.000 setgray
fill
grestore
stroke
grestore
} bind def
179.203 38.016 o
grestore
gsave
186.796812 0.156625 translate
90.000000 rotate
0.000000 0.000000 m /C glyphshow
6.982422 0.000000 m /o glyphshow
13.100586 0.000000 m /c glyphshow
18.598633 0.000000 m /o glyphshow
24.716797 0.000000 m /a glyphshow
grestore
2 setlinecap
0.690 setgray
gsave
357.1 266.1 57.6 38.02 clipbox
193.442297 38.016 m
193.442297 304.128 l
stroke
grestore
0 setlinecap
0.000 setgray
gsave
/o {
gsave
newpath
translate
0.8 setlinewidth
1 setlinejoin
0 setlinecap
0 0 m
0 -3.5 l

gsave
0.000 setgray
fill
grestore
stroke
grestore
} bind def
193.442 38.016 o
grestore
gsave
201.036047 -1.437125 translate
90.000000 rotate
0.000000 0.000000 m /C glyphshow
6.982422 0.000000 m /o glyphshow
13.100586 0.000000 m /f glyphshow
16.621094 0.000000 m /f glyphshow
20.141602 0.000000 m /e glyphshow
26.293945 0.000000 m /e glyphshow
grestore
2 setlinecap
0.690 setgray
gsave
357.1 266.1 57.6 38.02 clipbox
207.681531 38.016 m
207.681531 304.128 l
stroke
grestore
0 setlinecap
0.000 setgray
gsave
/o {
gsave
newpath
translate
0.8 setlinewidth
1 setlinejoin
0 setlinecap
0 0 m
0 -3.5 l

gsave
0.000 setgray
fill
grestore
stroke
grestore
} bind def
207.682 38.016 o
grestore
gsave
215.275281 -2.405875 translate
90.000000 rotate
0.000000 0.000000 m /C glyphshow
6.982422 0.000000 m /o glyphshow
13.100586 0.000000 m /t glyphshow
17.021484 0.000000 m /t glyphshow
20.942383 0.000000 m /o glyphshow
27.060547 0.000000 m /n glyphshow
grestore
2 setlinecap
0.690 setgray
gsave
357.1 266.1 57.6 38.02 clipbox
221.920766 38.016 m
221.920766 304.128 l
stroke
grestore
0 setlinecap
0.000 setgray
gsave
/o {
gsave
newpath
translate
0.8 setlinewidth
1 setlinejoin
0 setlinecap
0 0 m
0 -3.5 l

gsave
0.000 setgray
fill
grestore
stroke
grestore
} bind def
221.921 38.016 o
grestore
gsave
229.514516 2.922250 translate
90.000000 rotate
0.000000 0.000000 m /S glyphshow
6.347656 0.000000 m /i glyphshow
9.125977 0.000000 m /l glyphshow
11.904297 0.000000 m /v glyphshow
17.822266 0.000000 m /e glyphshow
23.974609 0.000000 m /r glyphshow
grestore
2 setlinecap
0.690 setgray
gsave
357.1 266.1 57.6 38.02 clipbox
236.16 38.016 m
236.16 304.128 l
stroke
grestore
0 setlinecap
0.000 setgray
gsave
/o {
gsave
newpath
translate
0.8 setlinewidth
1 setlinejoin
0 setlinecap
0 0 m
0 -3.5 l

gsave
0.000 setgray
fill
grestore
stroke
grestore
} bind def
236.16 38.016 o
grestore
gsave
243.753750 8.016000 translate
90.000000 rotate
0.000000 0.000000 m /G glyphshow
7.749023 0.000000 m /o glyphshow
13.867188 0.000000 m /l glyphshow
16.645508 0.000000 m /d glyphshow
grestore
2 setlinecap
0.690 setgray
gsave
357.1 266.1 57.6 38.02 clipbox
250.399234 38.016 m
250.399234 304.128 l
stroke
grestore
0 setlinecap
0.000 setgray
gsave
/o {
gsave
newpath
translate
0.8 setlinewidth
1 setlinejoin
0 setlinecap
0 0 m
0 -3.5 l

gsave
0.000 setgray
fill
grestore
stroke
grestore
} bind def
250.399 38.016 o
grestore
gsave
257.992984 -23.187125 translate
90.000000 rotate
0.000000 0.000000 m /L glyphshow
5.571289 0.000000 m /M glyphshow
14.199219 0.000000 m /E glyphshow
20.517578 0.000000 m /space glyphshow
23.696289 0.000000 m /N glyphshow
31.176758 0.000000 m /i glyphshow
33.955078 0.000000 m /c glyphshow
39.453125 0.000000 m /k glyphshow
45.244141 0.000000 m /e glyphshow
51.396484 0.000000 m /l glyphshow
grestore
2 setlinecap
0.690 setgray
gsave
357.1 266.1 57.6 38.02 clipbox
264.638469 38.016 m
264.638469 304.128 l
stroke
grestore
0 setlinecap
0.000 setgray
gsave
/o {
gsave
newpath
translate
0.8 setlinewidth
1 setlinejoin
0 setlinecap
0 0 m
0 -3.5 l

gsave
0.000 setgray
fill
grestore
stroke
grestore
} bind def
264.638 38.016 o
grestore
gsave
272.232219 -16.890250 translate
90.000000 rotate
0.000000 0.000000 m /L glyphshow
5.571289 0.000000 m /M glyphshow
14.199219 0.000000 m /E glyphshow
20.517578 0.000000 m /space glyphshow
23.696289 0.000000 m /L glyphshow
29.267578 0.000000 m /e glyphshow
35.419922 0.000000 m /a glyphshow
41.547852 0.000000 m /d glyphshow
grestore
2 setlinecap
0.690 setgray
gsave
357.1 266.1 57.6 38.02 clipbox
278.877703 38.016 m
278.877703 304.128 l
stroke
grestore
0 setlinecap
0.000 setgray
gsave
/o {
gsave
newpath
translate
0.8 setlinewidth
1 setlinejoin
0 setlinecap
0 0 m
0 -3.5 l

gsave
0.000 setgray
fill
grestore
stroke
grestore
} bind def
278.878 38.016 o
grestore
gsave
286.471453 -28.749625 translate
90.000000 rotate
0.000000 0.000000 m /L glyphshow
5.571289 0.000000 m /M glyphshow
14.199219 0.000000 m /E glyphshow
20.517578 0.000000 m /space glyphshow
23.696289 0.000000 m /C glyphshow
30.678711 0.000000 m /o glyphshow
36.796875 0.000000 m /p glyphshow
43.144531 0.000000 m /p glyphshow
49.492188 0.000000 m /e glyphshow
55.644531 0.000000 m /r glyphshow
grestore
2 setlinecap
0.690 setgray
gsave
357.1 266.1 57.6 38.02 clipbox
293.116938 38.016 m
293.116938 304.128 l
stroke
grestore
0 setlinecap
0.000 setgray
gsave
/o {
gsave
newpath
translate
0.8 setlinewidth
1 setlinejoin
0 setlinecap
0 0 m
0 -3.5 l

gsave
0.000 setgray
fill
grestore
stroke
grestore
} bind def
293.117 38.016 o
grestore
gsave
300.710688 -14.171500 translate
90.000000 rotate
0.000000 0.000000 m /L glyphshow
5.571289 0.000000 m /M glyphshow
14.199219 0.000000 m /E glyphshow
20.517578 0.000000 m /space glyphshow
23.696289 0.000000 m /Z glyphshow
30.546875 0.000000 m /i glyphshow
33.325195 0.000000 m /n glyphshow
39.663086 0.000000 m /c glyphshow
grestore
2 setlinecap
0.690 setgray
gsave
357.1 266.1 57.6 38.02 clipbox
307.356172 38.016 m
307.356172 304.128 l
stroke
grestore
0 setlinecap
0.000 setgray
gsave
/o {
gsave
newpath
translate
0.8 setlinewidth
1 setlinejoin
0 setlinecap
0 0 m
0 -3.5 l

gsave
0.000 setgray
fill
grestore
stroke
grestore
} bind def
307.356 38.016 o
grestore
gsave
314.949922 -43.624625 translate
90.000000 rotate
0.000000 0.000000 m /L glyphshow
5.571289 0.000000 m /M glyphshow
14.199219 0.000000 m /E glyphshow
20.517578 0.000000 m /space glyphshow
23.696289 0.000000 m /A glyphshow
30.537109 0.000000 m /l glyphshow
33.315430 0.000000 m /u glyphshow
39.653320 0.000000 m /m glyphshow
49.394531 0.000000 m /i glyphshow
52.172852 0.000000 m /n glyphshow
58.510742 0.000000 m /u glyphshow
64.848633 0.000000 m /m glyphshow
grestore
2 setlinecap
0.690 setgray
gsave
357.1 266.1 57.6 38.02 clipbox
321.595407 38.016 m
321.595407 304.128 l
stroke
grestore
0 setlinecap
0.000 setgray
gsave
/o {
gsave
newpath
translate
0.8 setlinewidth
1 setlinejoin
0 setlinecap
0 0 m
0 -3.5 l

gsave
0.000 setgray
fill
grestore
stroke
grestore
} bind def
321.595 38.016 o
grestore
gsave
329.189157 -26.749625 translate
90.000000 rotate
0.000000 0.000000 m /N glyphshow
7.480469 0.000000 m /a glyphshow
13.608398 0.000000 m /t glyphshow
17.529297 0.000000 m /u glyphshow
23.867188 0.000000 m /r glyphshow
27.978516 0.000000 m /a glyphshow
34.106445 0.000000 m /l glyphshow
36.884766 0.000000 m /space glyphshow
40.063477 0.000000 m /g glyphshow
46.411133 0.000000 m /a glyphshow
52.539062 0.000000 m /s glyphshow
grestore
2 setlinecap
0.690 setgray
gsave
357.1 266.1 57.6 38.02 clipbox
335.834641 38.016 m
335.834641 304.128 l
stroke
grestore
0 setlinecap
0.000 setgray
gsave
/o {
gsave
newpath
translate
0.8 setlinewidth
1 setlinejoin
0 setlinecap
0 0 m
0 -3.5 l

gsave
0.000 setgray
fill
grestore
stroke
grestore
} bind def
335.835 38.016 o
grestore
gsave
343.428391 -12.265250 translate
90.000000 rotate
0.000000 0.000000 m /G glyphshow
7.749023 0.000000 m /a glyphshow
13.876953 0.000000 m /s glyphshow
19.086914 0.000000 m /o glyphshow
25.205078 0.000000 m /l glyphshow
27.983398 0.000000 m /i glyphshow
30.761719 0.000000 m /n glyphshow
37.099609 0.000000 m /e glyphshow
grestore
2 setlinecap
0.690 setgray
gsave
357.1 266.1 57.6 38.02 clipbox
350.073876 38.016 m
350.073876 304.128 l
stroke
grestore
0 setlinecap
0.000 setgray
gsave
/o {
gsave
newpath
translate
0.8 setlinewidth
1 setlinejoin
0 setlinecap
0 0 m
0 -3.5 l

gsave
0.000 setgray
fill
grestore
stroke
grestore
} bind def
350.074 38.016 o
grestore
gsave
357.667626 -23.046500 translate
90.000000 rotate
0.000000 0.000000 m /H glyphshow
7.519531 0.000000 m /e glyphshow
13.671875 0.000000 m /a glyphshow
19.799805 0.000000 m /t glyphshow
23.720703 0.000000 m /i glyphshow
26.499023 0.000000 m /n glyphshow
32.836914 0.000000 m /g glyphshow
39.184570 0.000000 m /space glyphshow
42.363281 0.000000 m /o glyphshow
48.481445 0.000000 m /i glyphshow
51.259766 0.000000 m /l glyphshow
grestore
2 setlinecap
0.690 setgray
gsave
357.1 266.1 57.6 38.02 clipbox
364.31311 38.016 m
364.31311 304.128 l
stroke
grestore
0 setlinecap
0.000 setgray
gsave
/o {
gsave
newpath
translate
0.8 setlinewidth
1 setlinejoin
0 setlinecap
0 0 m
0 -3.5 l

gsave
0.000 setgray
fill
grestore
stroke
grestore
} bind def
364.313 38.016 o
grestore
gsave
371.906860 -28.015250 translate
90.000000 rotate
0.000000 0.000000 m /B glyphshow
6.860352 0.000000 m /r glyphshow
10.971680 0.000000 m /e glyphshow
17.124023 0.000000 m /n glyphshow
23.461914 0.000000 m /t glyphshow
27.382812 0.000000 m /space glyphshow
30.561523 0.000000 m /c glyphshow
36.059570 0.000000 m /r glyphshow
40.170898 0.000000 m /u glyphshow
46.508789 0.000000 m /d glyphshow
52.856445 0.000000 m /e glyphshow
grestore
2 setlinecap
0.690 setgray
gsave
357.1 266.1 57.6 38.02 clipbox
378.552344 38.016 m
378.552344 304.128 l
stroke
grestore
0 setlinecap
0.000 setgray
gsave
/o {
gsave
newpath
translate
0.8 setlinewidth
1 setlinejoin
0 setlinecap
0 0 m
0 -3.5 l

gsave
0.000 setgray
fill
grestore
stroke
grestore
} bind def
378.552 38.016 o
grestore
gsave
386.146094 12.062875 translate
90.000000 rotate
0.000000 0.000000 m /W glyphshow
9.887695 0.000000 m /T glyphshow
15.996094 0.000000 m /I glyphshow
grestore
2 setlinecap
0.690 setgray
gsave
357.1 266.1 57.6 38.02 clipbox
392.791579 38.016 m
392.791579 304.128 l
stroke
grestore
0 setlinecap
0.000 setgray
gsave
/o {
gsave
newpath
translate
0.8 setlinewidth
1 setlinejoin
0 setlinecap
0 0 m
0 -3.5 l

gsave
0.000 setgray
fill
grestore
stroke
grestore
} bind def
392.792 38.016 o
grestore
gsave
400.385329 -2.952750 translate
90.000000 rotate
0.000000 0.000000 m /G glyphshow
7.749023 0.000000 m /a glyphshow
13.876953 0.000000 m /s glyphshow
19.086914 0.000000 m /space glyphshow
22.265625 0.000000 m /o glyphshow
28.383789 0.000000 m /i glyphshow
31.162109 0.000000 m /l glyphshow
grestore
gsave
216.972500 -55.218375 translate
0.000000 rotate
0.000000 0.000000 m /P glyphshow
6.030273 0.000000 m /r glyphshow
10.141602 0.000000 m /o glyphshow
16.259766 0.000000 m /d glyphshow
22.607422 0.000000 m /u glyphshow
28.945312 0.000000 m /c glyphshow
34.443359 0.000000 m /t glyphshow
grestore
2 setlinecap
0.690 setgray
gsave
357.1 266.1 57.6 38.02 clipbox
57.6 38.016 m
414.72 38.016 l
stroke
grestore
0 setlinecap
0.000 setgray
gsave
/o {
gsave
newpath
translate
0.8 setlinewidth
1 setlinejoin
0 setlinecap
0 0 m
-3.5 0 l

gsave
0.000 setgray
fill
grestore
stroke
grestore
} bind def
57.6 38.016 o
grestore
gsave
19.959375 34.219125 translate
0.000000 rotate
0.000000 0.000000 m /minus glyphshow
8.378906 0.000000 m /one glyphshow
14.741211 0.000000 m /period glyphshow
17.919922 0.000000 m /zero glyphshow
24.282227 0.000000 m /zero glyphshow
grestore
2 setlinecap
0.690 setgray
gsave
357.1 266.1 57.6 38.02 clipbox
57.6 71.28 m
414.72 71.28 l
stroke
grestore
0 setlinecap
0.000 setgray
gsave
/o {
gsave
newpath
translate
0.8 setlinewidth
1 setlinejoin
0 setlinecap
0 0 m
-3.5 0 l

gsave
0.000 setgray
fill
grestore
stroke
grestore
} bind def
57.6 71.28 o
grestore
gsave
19.959375 67.483125 translate
0.000000 rotate
0.000000 0.000000 m /minus glyphshow
8.378906 0.000000 m /zero glyphshow
14.741211 0.000000 m /period glyphshow
17.919922 0.000000 m /seven glyphshow
24.282227 0.000000 m /five glyphshow
grestore
2 setlinecap
0.690 setgray
gsave
357.1 266.1 57.6 38.02 clipbox
57.6 104.544 m
414.72 104.544 l
stroke
grestore
0 setlinecap
0.000 setgray
gsave
/o {
gsave
newpath
translate
0.8 setlinewidth
1 setlinejoin
0 setlinecap
0 0 m
-3.5 0 l

gsave
0.000 setgray
fill
grestore
stroke
grestore
} bind def
57.6 104.544 o
grestore
gsave
19.959375 100.747125 translate
0.000000 rotate
0.000000 0.000000 m /minus glyphshow
8.378906 0.000000 m /zero glyphshow
14.741211 0.000000 m /period glyphshow
17.919922 0.000000 m /five glyphshow
24.282227 0.000000 m /zero glyphshow
grestore
2 setlinecap
0.690 setgray
gsave
357.1 266.1 57.6 38.02 clipbox
57.6 137.808 m
414.72 137.808 l
stroke
grestore
0 setlinecap
0.000 setgray
gsave
/o {
gsave
newpath
translate
0.8 setlinewidth
1 setlinejoin
0 setlinecap
0 0 m
-3.5 0 l

gsave
0.000 setgray
fill
grestore
stroke
grestore
} bind def
57.6 137.808 o
grestore
gsave
19.959375 134.011125 translate
0.000000 rotate
0.000000 0.000000 m /minus glyphshow
8.378906 0.000000 m /zero glyphshow
14.741211 0.000000 m /period glyphshow
17.919922 0.000000 m /two glyphshow
24.282227 0.000000 m /five glyphshow
grestore
2 setlinecap
0.690 setgray
gsave
357.1 266.1 57.6 38.02 clipbox
57.6 171.072 m
414.72 171.072 l
stroke
grestore
0 setlinecap
0.000 setgray
gsave
/o {
gsave
newpath
translate
0.8 setlinewidth
1 setlinejoin
0 setlinecap
0 0 m
-3.5 0 l

gsave
0.000 setgray
fill
grestore
stroke
grestore
} bind def
57.6 171.072 o
grestore
gsave
28.334375 167.275125 translate
0.000000 rotate
0.000000 0.000000 m /zero glyphshow
6.362305 0.000000 m /period glyphshow
9.541016 0.000000 m /zero glyphshow
15.903320 0.000000 m /zero glyphshow
grestore
2 setlinecap
0.690 setgray
gsave
357.1 266.1 57.6 38.02 clipbox
57.6 204.336 m
414.72 204.336 l
stroke
grestore
0 setlinecap
0.000 setgray
gsave
/o {
gsave
newpath
translate
0.8 setlinewidth
1 setlinejoin
0 setlinecap
0 0 m
-3.5 0 l

gsave
0.000 setgray
fill
grestore
stroke
grestore
} bind def
57.6 204.336 o
grestore
gsave
28.334375 200.539125 translate
0.000000 rotate
0.000000 0.000000 m /zero glyphshow
6.362305 0.000000 m /period glyphshow
9.541016 0.000000 m /two glyphshow
15.903320 0.000000 m /five glyphshow
grestore
2 setlinecap
0.690 setgray
gsave
357.1 266.1 57.6 38.02 clipbox
57.6 237.6 m
414.72 237.6 l
stroke
grestore
0 setlinecap
0.000 setgray
gsave
/o {
gsave
newpath
translate
0.8 setlinewidth
1 setlinejoin
0 setlinecap
0 0 m
-3.5 0 l

gsave
0.000 setgray
fill
grestore
stroke
grestore
} bind def
57.6 237.6 o
grestore
gsave
28.334375 233.803125 translate
0.000000 rotate
0.000000 0.000000 m /zero glyphshow
6.362305 0.000000 m /period glyphshow
9.541016 0.000000 m /five glyphshow
15.903320 0.000000 m /zero glyphshow
grestore
2 setlinecap
0.690 setgray
gsave
357.1 266.1 57.6 38.02 clipbox
57.6 270.864 m
414.72 270.864 l
stroke
grestore
0 setlinecap
0.000 setgray
gsave
/o {
gsave
newpath
translate
0.8 setlinewidth
1 setlinejoin
0 setlinecap
0 0 m
-3.5 0 l

gsave
0.000 setgray
fill
grestore
stroke
grestore
} bind def
57.6 270.864 o
grestore
gsave
28.334375 267.067125 translate
0.000000 rotate
0.000000 0.000000 m /zero glyphshow
6.362305 0.000000 m /period glyphshow
9.541016 0.000000 m /seven glyphshow
15.903320 0.000000 m /five glyphshow
grestore
2 setlinecap
0.690 setgray
gsave
357.1 266.1 57.6 38.02 clipbox
57.6 304.128 m
414.72 304.128 l
stroke
grestore
0 setlinecap
0.000 setgray
gsave
/o {
gsave
newpath
translate
0.8 setlinewidth
1 setlinejoin
0 setlinecap
0 0 m
-3.5 0 l

gsave
0.000 setgray
fill
grestore
stroke
grestore
} bind def
57.6 304.128 o
grestore
gsave
28.334375 300.331125 translate
0.000000 rotate
0.000000 0.000000 m /one glyphshow
6.362305 0.000000 m /period glyphshow
9.541016 0.000000 m /zero glyphshow
15.903320 0.000000 m /zero glyphshow
grestore
0.122 0.467 0.706 setrgbcolor
gsave
13.881250 140.236062 translate
90.000000 rotate
0.000000 0.000000 m /S glyphshow
6.347656 0.000000 m /h glyphshow
12.685547 0.000000 m /a glyphshow
18.813477 0.000000 m /r glyphshow
22.924805 0.000000 m /p glyphshow
29.272461 0.000000 m /e glyphshow
35.424805 0.000000 m /space glyphshow
38.603516 0.000000 m /r glyphshow
42.714844 0.000000 m /a glyphshow
48.842773 0.000000 m /t glyphshow
52.763672 0.000000 m /i glyphshow
55.541992 0.000000 m /o glyphshow
grestore
0 setlinejoin
2 setlinecap
[] 0 setdash
0.000 setgray
gsave
57.6 38.016 m
57.6 304.128 l
stroke
grestore
gsave
414.72 38.016 m
414.72 304.128 l
stroke
grestore
gsave
57.6 38.016 m
414.72 38.016 l
stroke
grestore
gsave
57.6 304.128 m
414.72 304.128 l
stroke
grestore

end
showpage
